<?xml version="1.0" encoding="UTF-8" standalone="no"?>
<!-- Created with Inkscape (http://www.inkscape.org/) -->

<svg
   xmlns:dc="http://purl.org/dc/elements/1.1/"
   xmlns:cc="http://creativecommons.org/ns#"
   xmlns:rdf="http://www.w3.org/1999/02/22-rdf-syntax-ns#"
   xmlns:svg="http://www.w3.org/2000/svg"
   xmlns="http://www.w3.org/2000/svg"
   xmlns:xlink="http://www.w3.org/1999/xlink"
   xmlns:sodipodi="http://sodipodi.sourceforge.net/DTD/sodipodi-0.dtd"
   xmlns:inkscape="http://www.inkscape.org/namespaces/inkscape"
   id="svg2"
   version="1.1"
   inkscape:version="0.91 r13725"
   width="702"
   height="211"
   viewBox="0 0 702 211"
   sodipodi:docname="red_wave_big.svg">
  <metadata
     id="metadata8">
    <rdf:RDF>
      <cc:Work
         rdf:about="">
        <dc:format>image/svg+xml</dc:format>
        <dc:type
           rdf:resource="http://purl.org/dc/dcmitype/StillImage" />
        <dc:title></dc:title>
      </cc:Work>
    </rdf:RDF>
  </metadata>
  <defs
     id="defs6">
    <linearGradient
       inkscape:collect="always"
       id="linearGradient5544">
      <stop
         style="stop-color:#ed2225;stop-opacity:1;"
         offset="0"
         id="stop5532" />
      <stop
         style="stop-color:#b71b1f;stop-opacity:1"
         offset="1"
         id="stop5534" />
    </linearGradient>
    <linearGradient
       inkscape:collect="always"
       xlink:href="#linearGradient5544"
       id="linearGradient5536"
       x1="1071.6942"
       y1="1023.5016"
       x2="1071.6942"
       y2="1199.7177"
       gradientUnits="userSpaceOnUse"
       gradientTransform="matrix(0.3491502,0,0,0.3491502,-9.5370179,-208.53551)" />
  </defs>
  <sodipodi:namedview
     pagecolor="#ffffff"
     bordercolor="#666666"
     borderopacity="1"
     objecttolerance="10"
     gridtolerance="10"
     guidetolerance="10"
     inkscape:pageopacity="0"
     inkscape:pageshadow="2"
     inkscape:window-width="1280"
     inkscape:window-height="776"
     id="namedview4"
     showgrid="false"
     inkscape:zoom="1.4142136"
     inkscape:cx="318.98729"
     inkscape:cy="124.92959"
     inkscape:window-x="0"
     inkscape:window-y="0"
     inkscape:window-maximized="1"
     inkscape:current-layer="svg2" />
  <path
     style="opacity:1;fill:url(#linearGradient5536);fill-opacity:1"
     d="m 11.986388,205.23737 c 29.260057,-14.36743 73.114637,-34.36825 91.433712,-41.70034 52.7318,-21.10557 109.43017,-33.23409 171.95647,-36.78376 35.39057,-2.00915 67.02881,-1.0189 96.52224,3.02106 75.87236,10.39286 148.52811,11.94133 207.23845,4.4168 45.82006,-5.87247 83.85799,-16.5231 115.48956,-32.33713 L 702,98.16783 c 0,22.03119 0.003,44.00693 0.003,66.04365 l -8.13557,2.33138 c -57.94091,16.60388 -151.30117,17.90631 -270.97471,3.8098 -24.62763,-2.90095 -44.5515,-5.62632 -68.22559,-9.33261 -31.3373,-4.90596 -49.95785,-6.70669 -76.58814,-7.40663 -71.47645,-1.87868 -145.246,10.69614 -223.103307,38.03035 -13.570334,4.76429 -37.106407,13.79555 -36.78631,14.11565 0.08378,0.0837 3.779648,-1.02728 8.213035,-2.46905 34.541563,-11.23301 79.004722,-21.33206 125.625042,-28.53363 27.48938,-4.24633 41.32774,-5.42829 67.48528,-5.76388 20.43252,-0.26215 32.17423,0.1653 49.7539,1.68474 35.22719,3.04477 70.73328,9.3074 123.51189,21.7852 48.881,11.55634 66.99434,15.51575 89.90617,18.53792 -40.19453,0 -68.56484,0.2333 -114.08717,0.2333 l -15.62331,-5.40833 c -22.15485,-7.66935 -34.04273,-11.41593 -46.39216,-14.62099 -19.16156,-4.97301 -37.37833,-8.01145 -59.13732,-9.77591 -9.02893,-0.73217 -43.61025,-0.72532 -53.68184,0.011 -43.89296,3.20736 -86.80936,10.74713 -145.955609,25.64217 l -16.333596,4.11335 C 20.976511,211.22251 10.4806,211.1121 -0.01565032,211.00968 L 11.986388,205.23793 Z m 533.108732,5.27028 c -62.81633,-4.54192 -67.9403,-5.37681 -168.24676,-27.41349 -69.02495,-15.16436 -89.91671,-18.31119 -129.10375,-19.44621 -30.3474,-0.87901 -55.43052,1.14976 -94.57061,7.64898 -19.3726,3.21683 -51.02554,9.44748 -66.513885,13.09275 -4.451707,1.04773 -6.687014,1.21958 -3.004501,0.23096 39.421296,-10.58302 79.044636,-18.59811 114.471466,-23.15557 15.20129,-1.95555 34.85225,-3.10917 57.60979,-3.38205 37.06749,-0.44443 48.23246,0.4452 113.25561,9.02439 75.88719,10.01258 118.42994,14.21415 168.9014,16.68092 15.02128,0.73416 64.56776,0.73511 76.81307,0 32.78026,-1.96396 58.03692,-5.17681 80.98471,-10.30188 l 6.30283,-1.40763 c 0,11.44517 0,22.87862 0,34.33551 l -1.04187,0.39611 c -1.78622,0.67909 -11.54088,2.53796 -18.26709,3.48101 -6.27451,0.8797 -7.96355,0.90061 -68.08429,0.84244 -45.78818,-0.0443 -63.67148,-0.20579 -69.50612,-0.62767 z m 150.2227,-0.6058 c 2.68895,-0.68937 5.29121,-1.38103 5.78281,-1.53708 0.78685,-0.24975 0.89386,-0.0973 0.89386,1.27325 l 0,1.55694 -5.7828,-0.0198 -5.7828,-0.0199 z"
     id="path4688"
     inkscape:connector-curvature="0"
     sodipodi:nodetypes="csssssccssssscsssssccssscscccccssssssssscsccsssccscscccs" />
</svg>
